module gitlab.com/uzbekman2005/go-kafka

go 1.19

require (
	github.com/Shopify/sarama v1.37.2
	github.com/gin-gonic/gin v1.8.1
	gopkg.in/alecthomas/kingpin.v2 v2.2.6
)

require (
	github.com/alecthomas/template v0.0.0-20190718012654-fb15b899a751 // indirect
	github.com/alecthomas/units v0.0.0-20211218093645-b94a6e3cc137 // indirect
	github.com/davecgh/go-spew v1.1.1 // indirect
	github.com/eapache/go-resiliency v1.3.0 // indirect
	github.com/eapache/go-xerial-snappy v0.0.0-20180814174437-776d5712da21 // indirect
	github.com/eapache/queue v1.1.0 // indirect
	github.com/gin-contrib/sse v0.1.0 // indirect
	github.com/go-playground/locales v0.14.0 // indirect
	github.com/go-playground/universal-translator v0.18.0 // indirect
	github.com/go-playground/validator/v10 v10.10.0 // indirect
	github.com/goccy/go-json v0.9.7 // indirect
	github.com/golang/snappy v0.0.4 // indirect
	github.com/hashicorp/errwrap v1.0.0 // indirect
	github.com/hashicorp/go-multierror v1.1.1 // indirect
	github.com/hashicorp/go-uuid v1.0.3 // indirect
	github.com/jcmturner/aescts/v2 v2.0.0 // indirect
	github.com/jcmturner/dnsutils/v2 v2.0.0 // indirect
	github.com/jcmturner/gofork v1.7.6 // indirect
	github.com/jcmturner/gokrb5/v8 v8.4.3 // indirect
	github.com/jcmturner/rpc/v2 v2.0.3 // indirect
	github.com/json-iterator/go v1.1.12 // indirect
	github.com/klauspost/compress v1.15.11 // indirect
	github.com/leodido/go-urn v1.2.1 // indirect
	github.com/mattn/go-isatty v0.0.14 // indirect
	github.com/modern-go/concurrent v0.0.0-20180228061459-e0a39a4cb421 // indirect
	github.com/modern-go/reflect2 v1.0.2 // indirect
	github.com/pelletier/go-toml/v2 v2.0.1 // indirect
	github.com/pierrec/lz4/v4 v4.1.17 // indirect
	github.com/rcrowley/go-metrics v0.0.0-20201227073835-cf1acfcdf475 // indirect
	github.com/ugorji/go/codec v1.2.7 // indirect
	golang.org/x/crypto v0.0.0-20220722155217-630584e8d5aa // indirect
	golang.org/x/net v0.0.0-20220927171203-f486391704dc // indirect
	golang.org/x/sys v0.0.0-20220728004956-3c1f35247d10 // indirect
	golang.org/x/text v0.3.7 // indirect
	google.golang.org/protobuf v1.28.0 // indirect
	gopkg.in/yaml.v2 v2.4.0 // indirect
)
